{"data":[{"openId":"resalb201909270219gl6crnze","title":"看动漫学作文（统编版）五年级下","cover":"album/cover/33d6c323158ff313962a3342d632daaf.jpg","introduction":"","partnerOpenId":"usrptn201909091502k0tm3lhi","countNum":229,"sectionId":"1001","subjectId":"1001","editionId":"1001,1070,1065","gradeId":"1005","volumeId":"1002","periodId":"1007","regimentationIds":"10001","secondRegimentationIds":"10005","hiddenAt":null,"stopSoldAt":null,"hiddenByOfficialAt":null,"stopSoldByOfficialAt":null,"price":4900,"discount":1.0,"vipDiscount":0.0,"saleType":2,"vipOnly":false,"needAddress":false,"sequence":0,"tags":null,"partnerName":"淘知学堂小学号","partnerType":"企业","partnerLogo":"mp/partnerLogo/9b6f62bdcab1960bd29016c13e0ba476.jpg","publishedAt":"2021-04-17 08:52:06","updatedAt":"2021-04-17 08:52:06","recommendSequence":null,"resourceType":4,"vid":null,"albumContentNums":8,"syncInfoText":null,"periodName":null,"resourceOpenId":"resalb201909270219gl6crnze","distribution":false,"totalClass":0,"displayType":4,"finish":false},{"openId":"resalb2021040710409f1vsng2","title":"小学生读写素养系列教程（五年级下）","cover":"album/cover/d7ff671ac97b20f8abc3f899c9d19874.jpg","introduction":null,"partnerOpenId":"usrptn201909091502k0tm3lhi","countNum":0,"sectionId":"1001","subjectId":"1001","editionId":"1001,1070,1065","gradeId":"1005","volumeId":"1002","periodId":"1007","regimentationIds":"10001","secondRegimentationIds":"10012,10005","hiddenAt":null,"stopSoldAt":null,"hiddenByOfficialAt":null,"stopSoldByOfficialAt":null,"price":3500,"discount":1.0,"vipDiscount":0.0,"saleType":1,"vipOnly":false,"needAddress":false,"sequence":null,"tags":null,"partnerName":"淘知学堂小学号","partnerType":"企业","partnerLogo":"mp/partnerLogo/9b6f62bdcab1960bd29016c13e0ba476.jpg","publishedAt":"2021-04-17 08:38:12","updatedAt":"2021-04-17 08:38:12","recommendSequence":null,"resourceType":4,"vid":null,"albumContentNums":7,"syncInfoText":null,"periodName":null,"resourceOpenId":"resalb2021040710409f1vsng2","distribution":null,"totalClass":7,"displayType":4,"finish":true},{"openId":"resalb202008110857bnwld1nj","title":"小升初古文精讲","cover":"album/cover/616859565fba07c1f703e5bf4c203e8e.jpg","introduction":null,"partnerOpenId":"usrptn202004031409nudrjfsd","countNum":14,"sectionId":"1001","subjectId":"1001","editionId":"1001,1070","gradeId":"1005,1006","volumeId":"1001,1002","periodId":"1005","regimentationIds":"10001,10001,10178,10171","secondRegimentationIds":"10015,10104,10179,10177","hiddenAt":null,"stopSoldAt":null,"hiddenByOfficialAt":null,"stopSoldByOfficialAt":null,"price":10900,"discount":1.0,"vipDiscount":0.73302,"saleType":1,"vipOnly":false,"needAddress":false,"sequence":32,"tags":null,"partnerName":"大榕树微课堂","partnerType":"企业","partnerLogo":"mp/partnerLogo/b79a7abc5893bccafb33c849e04fb072.jpg","publishedAt":"2021-04-14 16:23:30","updatedAt":"2021-04-14 16:23:30","recommendSequence":2,"resourceType":4,"vid":null,"albumContentNums":24,"syncInfoText":null,"periodName":null,"resourceOpenId":"resalb202008110857bnwld1nj","distribution":false,"totalClass":0,"displayType":4,"finish":false},{"openId":"resalb202008110855g49ytyne","title":"小升初文言文必背48词","cover":"album/cover/0feebb80265e0551c88c3398e623bb1f.jpg","introduction":null,"partnerOpenId":"usrptn202004031409nudrjfsd","countNum":18,"sectionId":"1001","subjectId":"1001","editionId":"1001,1070","gradeId":"1005,1006","volumeId":"1001,1002","periodId":"1005","regimentationIds":"10001,10001,10178,10171","secondRegimentationIds":"10015,10104,10179,10177","hiddenAt":null,"stopSoldAt":null,"hiddenByOfficialAt":null,"stopSoldByOfficialAt":null,"price":10900,"discount":1.0,"vipDiscount":0.73302,"saleType":1,"vipOnly":false,"needAddress":false,"sequence":0,"tags":null,"partnerName":"大榕树微课堂","partnerType":"企业","partnerLogo":"mp/partnerLogo/b79a7abc5893bccafb33c849e04fb072.jpg","publishedAt":"2021-04-14 16:23:28","updatedAt":"2021-04-14 16:23:28","recommendSequence":null,"resourceType":4,"vid":null,"albumContentNums":48,"syncInfoText":null,"periodName":null,"resourceOpenId":"resalb202008110855g49ytyne","distribution":false,"totalClass":0,"displayType":4,"finish":false},{"openId":"resalb202008110859gftwdmv8","title":"小升初古文学习的十把金钥匙","cover":"album/cover/f80e4060ea6b0e7ee5b8975eca71da59.jpg","introduction":null,"partnerOpenId":"usrptn202004031409nudrjfsd","countNum":18,"sectionId":"1001","subjectId":"1001","editionId":"1001,1070","gradeId":"1005,1006","volumeId":"1001,1002","periodId":"1005","regimentationIds":"10001,10001,10178","secondRegimentationIds":"10015,10104,10179","hiddenAt":null,"stopSoldAt":null,"hiddenByOfficialAt":null,"stopSoldByOfficialAt":null,"price":5900,"discount":1.0,"vipDiscount":0.62542,"saleType":1,"vipOnly":false,"needAddress":false,"sequence":0,"tags":null,"partnerName":"大榕树微课堂","partnerType":"企业","partnerLogo":"mp/partnerLogo/b79a7abc5893bccafb33c849e04fb072.jpg","publishedAt":"2021-04-14 16:23:26","updatedAt":"2021-04-14 16:23:26","recommendSequence":null,"resourceType":4,"vid":null,"albumContentNums":10,"syncInfoText":null,"periodName":null,"resourceOpenId":"resalb202008110859gftwdmv8","distribution":false,"totalClass":0,"displayType":4,"finish":false},{"openId":"resalb202012180138e7butfc6","title":"小学语文VIP专享资料（持续更新）","cover":"album/cover/716f799dc95b3f8945570e250160acea.jpg","introduction":null,"partnerOpenId":"usrptn201909091502k0tm3lhi","countNum":0,"sectionId":"1001","subjectId":"1001","editionId":"1001,1070","gradeId":"1001,1002,1003,1004,1005,1006","volumeId":"1001,1002","periodId":"1005","regimentationIds":"10001","secondRegimentationIds":"10226","hiddenAt":null,"stopSoldAt":null,"hiddenByOfficialAt":null,"stopSoldByOfficialAt":null,"price":0,"discount":100.0,"vipDiscount":100.0,"saleType":1,"vipOnly":true,"needAddress":false,"sequence":null,"tags":null,"partnerName":"淘知学堂小学号","partnerType":"企业","partnerLogo":"mp/partnerLogo/9b6f62bdcab1960bd29016c13e0ba476.jpg","publishedAt":"2021-04-14 14:39:14","updatedAt":"2021-04-14 14:39:14","recommendSequence":null,"resourceType":4,"vid":null,"albumContentNums":15,"syncInfoText":null,"periodName":null,"resourceOpenId":"resalb202012180138e7butfc6","distribution":false,"totalClass":0,"displayType":4,"finish":false},{"openId":"resalb2021012806090tqd99zu","title":"颠覆传统的高分作文课","cover":"album/cover/ba35f78c30f3b7dd967adef2213b60ea.png","introduction":null,"partnerOpenId":"usrptn202101251741pljun2zr","countNum":59,"sectionId":"1001,1002","subjectId":"1001","editionId":"1001","gradeId":"1003,1004,1005,1006,1018","volumeId":"1001,1002","periodId":"1007","regimentationIds":"10001","secondRegimentationIds":"10005","hiddenAt":null,"stopSoldAt":null,"hiddenByOfficialAt":null,"stopSoldByOfficialAt":null,"price":9900,"discount":1.0,"vipDiscount":0.79798,"saleType":1,"vipOnly":false,"needAddress":false,"sequence":3,"tags":null,"partnerName":"干货帮","partnerType":"企业","partnerLogo":"assets/user/system-cover/306.jpg","publishedAt":"2021-03-24 11:05:16","updatedAt":"2021-03-24 11:05:16","recommendSequence":1,"resourceType":4,"vid":null,"albumContentNums":17,"syncInfoText":null,"periodName":null,"resourceOpenId":"resalb2021012806090tqd99zu","distribution":false,"totalClass":17,"displayType":4,"finish":true},{"openId":"resalb202012310922igb9801b","title":"21春赢在寒假语文预习直播课五年级（下）","cover":"album/cover/52450eb68c0e74ef1543c1819b850e3a.jpg","introduction":null,"partnerOpenId":"usrptn201909091502k0tm3lhi","countNum":0,"sectionId":"1001","subjectId":"1001","editionId":"1070,1001","gradeId":"1005","volumeId":"1002","periodId":"1007","regimentationIds":"10001,10210","secondRegimentationIds":"10102,10211","hiddenAt":null,"stopSoldAt":null,"hiddenByOfficialAt":null,"stopSoldByOfficialAt":null,"price":0,"discount":100.0,"vipDiscount":100.0,"saleType":1,"vipOnly":true,"needAddress":false,"sequence":null,"tags":"近期直播","partnerName":"淘知学堂小学号","partnerType":"企业","partnerLogo":"mp/partnerLogo/9b6f62bdcab1960bd29016c13e0ba476.jpg","publishedAt":"2021-03-23 16:02:40","updatedAt":"2021-03-23 16:02:40","recommendSequence":0,"resourceType":4,"vid":null,"albumContentNums":25,"syncInfoText":null,"periodName":null,"resourceOpenId":"resalb202012310922igb9801b","distribution":false,"totalClass":0,"displayType":11,"finish":false},{"openId":"resalb202102250620nf3ue9fw","title":"小学语文同步素养直播课（五年级下）","cover":"album/cover/28c39653f13f7678f9755896d49fb429.jpg","introduction":null,"partnerOpenId":"usrptn201909091502k0tm3lhi","countNum":0,"sectionId":"1001","subjectId":"1001","editionId":"1001","gradeId":"1005","volumeId":"1002","periodId":"1007","regimentationIds":"10001,10210","secondRegimentationIds":"10003,10211","hiddenAt":null,"stopSoldAt":null,"hiddenByOfficialAt":null,"stopSoldByOfficialAt":null,"price":0,"discount":100.0,"vipDiscount":100.0,"saleType":2,"vipOnly":true,"needAddress":false,"sequence":88,"tags":null,"partnerName":"淘知学堂小学号","partnerType":"企业","partnerLogo":"mp/partnerLogo/9b6f62bdcab1960bd29016c13e0ba476.jpg","publishedAt":"2021-03-23 16:00:56","updatedAt":"2021-03-23 16:00:56","recommendSequence":1,"resourceType":4,"vid":null,"albumContentNums":10,"syncInfoText":null,"periodName":null,"resourceOpenId":"resalb202102250620nf3ue9fw","distribution":false,"totalClass":0,"displayType":4,"finish":false},{"openId":"resalb20201231084843vw2b8v","title":"藏在音符里的语文（第二期）","cover":"album/cover/b0b0f8517db6daa47dbb1c1058cbcc21.jpg","introduction":null,"partnerOpenId":"usrptn201909091502k0tm3lhi","countNum":0,"sectionId":"1001","subjectId":"1001","editionId":"1001,1070","gradeId":"1001,1002,1003,1004,1005,1006","volumeId":"1001,1002","periodId":"1007","regimentationIds":"10001,10210,10171","secondRegimentationIds":"10015,10211,10177","hiddenAt":null,"stopSoldAt":null,"hiddenByOfficialAt":null,"stopSoldByOfficialAt":null,"price":0,"discount":100.0,"vipDiscount":100.0,"saleType":1,"vipOnly":true,"needAddress":false,"sequence":null,"tags":"近期直播","partnerName":"淘知学堂小学号","partnerType":"企业","partnerLogo":"mp/partnerLogo/9b6f62bdcab1960bd29016c13e0ba476.jpg","publishedAt":"2021-03-23 15:45:07","updatedAt":"2021-03-23 15:45:07","recommendSequence":0,"resourceType":4,"vid":null,"albumContentNums":8,"syncInfoText":null,"periodName":null,"resourceOpenId":"resalb20201231084843vw2b8v","distribution":false,"totalClass":0,"displayType":11,"finish":false}],"totalElements":131,"totalPages":14,"size":10,"number":4,"numberOfElements":10,"first":false,"last":false,"empty":false}